<svg width="10" height="15" viewBox="0 0 10 15" fill="none" xmlns="http://www.w3.org/2000/svg">
  <path fill-rule="evenodd" clip-rule="evenodd" d="M5 0C7.7575 0 10 2.20375 10 4.91125C10 8.04375 5.5275 13.605 5.3375 13.84C5.29684 13.8904 5.24543 13.931 5.18703 13.9589C5.12863 13.9868 5.06473 14.0013 5 14.0013C4.93527 14.0013 4.87137 13.9868 4.81297 13.9589C4.75457 13.931 4.70316 13.8904 4.6625 13.84C4.4725 13.605 0 8.05 0 4.9125C0 2.20375 2.2425 0 5 0ZM5 2.5C3.62125 2.5 2.5 3.62125 2.5 5C2.5 6.37875 3.62125 7.5 5 7.5C6.37875 7.5 7.5 6.37875 7.5 5C7.5 3.62125 6.37875 2.5 5 2.5Z" fill="white"/>
</svg>
