<svg width="24" height="24" viewBox="0 0 24 24" fill="none" xmlns="http://www.w3.org/2000/svg">
  <path d="M12 17C14.7614 17 17 14.7614 17 12C17 9.23858 14.7614 7 12 7C9.23858 7 7 9.23858 7 12C7 14.7614 9.23858 17 12 17Z" stroke="#212121" stroke-width="2" stroke-linecap="round" stroke-linejoin="round"/>
  <path d="M12 1V3" stroke="#212121" stroke-width="2" stroke-linecap="round" stroke-linejoin="round"/>
  <path d="M12 21V23" stroke="#212121" stroke-width="2" stroke-linecap="round" stroke-linejoin="round"/>
  <path d="M4.22021 4.21997L5.64021 5.63997" stroke="#212121" stroke-width="2" stroke-linecap="round" stroke-linejoin="round"/>
  <path d="M18.3599 18.36L19.7799 19.78" stroke="#212121" stroke-width="2" stroke-linecap="round" stroke-linejoin="round"/>
  <path d="M1 12H3" stroke="#212121" stroke-width="2" stroke-linecap="round" stroke-linejoin="round"/>
  <path d="M21 12H23" stroke="#212121" stroke-width="2" stroke-linecap="round" stroke-linejoin="round"/>
  <path d="M4.22021 19.78L5.64021 18.36" stroke="#212121" stroke-width="2" stroke-linecap="round" stroke-linejoin="round"/>
  <path d="M18.3599 5.63997L19.7799 4.21997" stroke="#212121" stroke-width="2" stroke-linecap="round" stroke-linejoin="round"/>
</svg>
